<?xml version="1.0" standalone="no"?>
<!DOCTYPE svg PUBLIC "-//W3C//DTD SVG 20010904//EN"
 "http://www.w3.org/TR/2001/REC-SVG-20010904/DTD/svg10.dtd">
<svg version="1.0" xmlns="http://www.w3.org/2000/svg"
 width="200.000000pt" height="200.000000pt" viewBox="0 0 200.000000 200.000000"
 preserveAspectRatio="xMidYMid meet">
<metadata>
Created by potrace 1.14, written by Peter Selinger 2001-2017
</metadata>
<g transform="translate(0.000000,200.000000) scale(0.100000,-0.100000)"
fill="#000000" stroke="none">
<path d="M873 1883 c4 -21 1 -23 -33 -23 -24 0 -43 7 -55 20 -23 25 -39 26
-26 2 8 -15 6 -18 -7 -17 -10 0 -23 4 -30 9 -12 7 -13 5 -16 -24 -1 -16 -43
-23 -52 -9 -3 5 -14 9 -25 9 -12 0 -17 -4 -13 -11 4 -8 -1 -9 -17 -4 -20 6
-19 2 11 -23 32 -28 33 -30 10 -25 l-25 6 25 -20 c14 -11 36 -26 49 -33 19
-10 21 -14 10 -20 -17 -10 -125 -8 -135 3 -14 14 -26 7 -14 -8 10 -12 9 -15
-6 -15 -18 -1 -18 -1 0 -15 20 -15 20 -15 0 -30 -19 -14 -19 -14 1 -15 11 -1
14 -4 7 -7 -6 -2 -9 -10 -5 -16 4 -6 0 -8 -10 -4 -11 4 -14 2 -10 -8 3 -8 9
-13 13 -10 5 3 11 1 15 -4 3 -6 -12 -19 -35 -31 -41 -21 -55 -35 -22 -23 13 5
15 4 6 -8 -27 -37 -39 -106 -35 -214 2 -60 4 -152 5 -203 1 -66 4 -92 14 -92
6 0 12 -4 12 -10 0 -5 -7 -10 -16 -10 -13 0 -15 -7 -9 -42 4 -24 12 -50 17
-58 7 -11 8 -9 5 11 -4 30 18 57 27 33 3 -9 6 -30 7 -47 0 -18 4 -41 9 -52 6
-14 9 -3 10 40 1 59 1 60 14 29 20 -44 62 -80 124 -105 49 -20 60 -21 100 -10
36 9 47 9 54 -1 7 -10 9 -10 5 2 -2 8 4 22 13 30 14 12 62 137 76 198 2 6 14
12 27 12 19 0 25 -8 36 -47 8 -27 16 -70 18 -98 1 -27 8 -70 13 -94 10 -41 9
-46 -17 -73 -25 -27 -32 -29 -73 -24 -25 3 -57 9 -72 12 -28 6 -42 -13 -15
-20 6 -2 28 -9 47 -16 111 -40 146 -50 172 -50 15 0 28 -4 28 -9 0 -5 10 -12
23 -14 16 -3 14 -5 -10 -6 -17 0 -33 4 -35 10 -2 7 -13 7 -33 -2 -17 -6 -90
-13 -164 -15 -74 -2 -137 -6 -140 -9 -2 -3 9 -20 26 -38 16 -17 47 -57 67 -89
26 -40 49 -62 80 -76 25 -12 46 -30 49 -42 5 -19 11 -20 71 -15 44 3 66 1 66
-6 0 -7 10 -5 24 5 18 11 26 12 28 4 7 -19 66 52 78 92 12 43 13 63 1 56 -13
-8 4 61 20 80 7 9 12 29 11 45 -3 35 11 37 32 7 l16 -22 0 21 c0 27 -10 53
-20 53 -15 0 -140 135 -140 150 0 4 26 8 58 9 75 3 100 6 107 13 3 3 20 2 38
-2 38 -8 39 -28 5 -86 -18 -30 -22 -54 -23 -118 -1 -78 -3 -86 -59 -198 -63
-129 -144 -225 -210 -253 -43 -18 -106 -19 -175 -3 -28 6 -53 9 -57 6 -20 -21
86 -97 163 -117 48 -13 93 -35 103 -51 4 -7 88 -10 266 -8 225 3 256 5 233 17
-75 38 -105 227 -85 533 7 105 10 118 26 118 30 0 90 40 90 60 0 10 6 20 13
23 6 2 20 33 30 68 10 35 24 81 30 103 17 60 14 103 -11 129 -22 24 -31 54
-12 42 7 -4 8 3 4 21 -4 16 -6 41 -5 56 9 110 -4 231 -29 281 -24 46 -24 44
-2 50 10 3 5 5 -13 6 l-30 2 25 11 25 10 -23 11 c-19 9 -23 16 -18 39 6 33
-15 58 -50 58 -24 0 -29 18 -9 32 8 7 -33 13 -57 9 -5 0 -8 4 -8 10 0 8 -6 7
-16 -2 -15 -12 -16 -10 -10 17 5 24 3 31 -9 32 -8 1 -22 3 -30 4 -8 1 -15 5
-15 10 0 4 -3 7 -7 7 -20 -3 -33 2 -33 14 0 6 -14 21 -30 32 -16 11 -30 23
-30 27 0 4 -6 5 -14 2 -8 -3 -37 6 -64 20 -30 15 -52 21 -54 15 -2 -7 -13 -6
-33 2 -42 16 -75 20 -75 7 0 -7 -4 -7 -12 0 -12 9 -59 18 -136 25 -31 3 -33 1
-29 -20z m12 -293 c8 -13 52 -13 61 1 3 6 16 8 28 5 11 -3 46 -8 76 -11 115
-12 160 -26 176 -57 8 -15 19 -28 24 -28 6 0 10 -18 10 -40 0 -34 4 -42 30
-55 28 -15 30 -19 24 -53 -9 -48 -21 -72 -39 -72 -12 0 -12 -4 1 -27 20 -41
18 -48 -18 -49 -55 -1 -156 -34 -231 -75 -69 -37 -137 -51 -137 -28 0 5 -4 7
-10 4 -6 -3 -10 -3 -10 2 0 24 -206 72 -245 57 -22 -9 -40 -44 -23 -44 10 -1
-58 -40 -68 -40 -4 0 6 61 16 100 5 19 14 82 20 138 5 57 13 109 17 115 18 31
110 118 139 132 18 8 35 19 38 23 7 11 114 13 121 2z m609 -485 l31 -13 -28
-1 c-27 -1 -87 23 -87 35 0 8 44 -3 84 -21z m-834 -29 c0 -2 -7 -6 -15 -10 -8
-3 -15 -1 -15 4 0 6 7 10 15 10 8 0 15 -2 15 -4z m-62 -30 c-7 -8 -15 -12 -17
-11 -5 6 10 25 20 25 5 0 4 -6 -3 -14z m192 -36 c0 -5 -4 -10 -10 -10 -5 0
-10 5 -10 10 0 6 5 10 10 10 6 0 10 -4 10 -10z m-140 -54 c9 26 15 29 58 29
37 1 48 -3 49 -15 1 -9 -11 -22 -25 -28 -23 -9 -15 -11 51 -9 42 1 77 1 77 -1
0 -9 -25 -49 -39 -62 -43 -40 -128 -52 -179 -26 -58 30 -93 90 -84 145 4 22 5
21 43 -19 l39 -42 10 28z m506 36 c-2 -4 10 -7 27 -7 16 0 32 -5 34 -10 4 -12
-56 -13 -75 -1 -17 10 -15 26 4 26 8 0 13 -3 10 -8z m167 -51 c15 -2 -15 -42
-46 -62 -60 -38 -189 -11 -174 35 4 13 91 29 95 17 1 -5 19 -3 40 5 20 7 46
11 57 9 11 -2 24 -4 28 -4z m32 -48 c-2 -19 -8 -28 -20 -26 -9 0 -14 -4 -12
-10 3 -7 -7 -12 -22 -13 -27 -1 -26 0 14 37 22 21 41 39 42 39 1 0 0 -12 -2
-27z m272 -25 c-3 -8 -6 -5 -6 6 -1 11 2 17 5 13 3 -3 4 -12 1 -19z m-27 -88
c0 -5 -5 -10 -11 -10 -5 0 -7 5 -4 10 3 6 8 10 11 10 2 0 4 -4 4 -10z m-708
-235 c10 -1 18 2 18 7 0 4 27 8 60 8 50 0 60 -3 60 -17 1 -17 1 -17 11 0 12
21 29 13 29 -13 0 -11 -12 -24 -30 -32 -16 -7 -30 -18 -30 -24 0 -18 -35 -23
-80 -12 -31 8 -40 15 -40 32 0 16 -2 18 -9 7 -10 -16 -31 -6 -31 14 0 7 -6 16
-12 18 -10 4 -10 8 2 16 8 5 19 7 24 3 6 -3 19 -7 28 -7z m214 -20 c-7 -18
-26 -20 -26 -2 0 18 24 41 28 27 2 -6 1 -17 -2 -25z m-211 -85 c-4 -6 1 -7 10
-3 10 3 21 0 26 -8 6 -10 9 -10 9 -1 0 6 11 12 25 12 14 0 25 -4 25 -10 0 -5
8 -10 18 -10 14 0 15 -2 2 -10 -8 -6 -27 -7 -42 -4 -17 3 -28 1 -28 -5 0 -16
-21 -13 -42 6 -20 18 -24 43 -7 43 5 0 7 -4 4 -10z m92 -86 c-3 -3 -12 -4 -19
-1 -8 3 -5 6 6 6 11 1 17 -2 13 -5z"/>
<path d="M690 680 l-34 -30 16 -47 15 -48 1 40 c0 30 6 45 26 62 25 21 35 53
18 53 -5 0 -24 -13 -42 -30z"/>
</g>
</svg>
